{
  "name": "my-jdbc-connector",
  "config": {
    "connector.class": "io.confluent.connect.jdbc.JdbcSourceConnector",
    "tasks.max": 1,
    "connection.url": "jdbc:sqlserver://db:1433;databaseName=AdventureWorks;user=sa;password=IDSI2023@ginfo;",
    "mode": "incrementing",
    "incrementing.column.name": "customer_id",
    "table.whitelist": "Customer",
    "topic.prefix": "AdventureWorks_",
    "poll.interval.ms": 5000
  }
}
